30.0,10.595959505181005
60.0,10.582003212551355
90.0,10.568466713268153
120.0,10.554092509830399
150.0,10.540143743537802
180.0,10.52613179345847
210.0,10.512954166430136
240.0,10.498828941842357
270.0,10.486540810299
300.0,10.472770745873687
330.0,10.458263073829322
360.0,10.444881177868536
390.0,10.430639178900892
420.0,10.417238892218322
450.0,10.40259478334792
480.0,10.387979467850263
510.0,10.374178445562
540.0,10.360690856048707
570.0,10.347724555144831
600.0,10.334262968600457
630.0,10.3204529448145
660.0,10.30695065797362
690.0,10.29177259143444
720.0,10.277496392686066
750.0,10.264443320658335
780.0,10.250829075293785
810.0,10.238100919672341
840.0,10.224447232050629
870.0,10.210861952083599
900.0,10.196455629417146
930.0,10.182406339317753
960.0,10.167964967343314
990.0,10.153467757803897
1020.0,10.139112881352395
1050.0,10.126991039065885
1080.0,10.114234583513786
1110.0,10.100861911956375
1140.0,10.087515985121769
1170.0,10.07200594918639
